module gitlab.com/Gustibimo/shipper-service-consignment

go 1.14

require (
	github.com/golang/protobuf v1.3.5
	golang.org/x/net v0.0.0-20200324143707-d3edc9973b7e // indirect
	golang.org/x/sys v0.0.0-20200409092240-59c9f1ba88fa // indirect
	golang.org/x/text v0.3.2 // indirect
	google.golang.org/genproto v0.0.0-20200409111301-baae70f3302d // indirect
	google.golang.org/grpc v1.28.1
)
